{
  "IcoMoonType": "selection",
  "icons": [
    {
      "icon": {
        "paths": [
          "M246.778 784.915c25.809 24.871 41.839 59.737 41.839 98.347 0 0.794-0.007 1.586-0.020 2.377 0.015 0.571 0.022 1.384 0.022 2.2 0 37.975-16.063 72.198-41.766 96.244-25.103 25.302-59.789 40.923-98.123 40.923-0.829 0-1.657-0.007-2.483-0.022-0.963 0.033-2.242 0.051-3.525 0.051-37.122 0-70.717-15.102-94.977-39.497-25.21-24.239-40.868-58.242-40.868-95.902 0-0.962 0.010-1.922 0.031-2.88-0.045-1.136-0.069-2.64-0.069-4.149 0-37.669 15.084-71.816 39.54-96.729 24.149-25.412 58.225-41.233 95.996-41.233 0.92 0 1.837 0.009 2.752 0.028 1.14-0.045 2.641-0.069 4.147-0.069 38.064 0 72.53 15.401 97.508 40.312zM255.063 35.31c-26.942-22.093-61.759-35.485-99.702-35.485-2.607 0-5.199 0.063-7.775 0.188-1.889-0.128-4.527-0.193-7.18-0.193-37.84 0-72.588 13.235-99.869 35.328-24.791 21.071-40.605 52.638-40.605 87.899 0 1.403 0.025 2.801 0.075 4.192 1.55 20.593 4.35 39.615 8.386 58.175q0.88 6.72 2.458 13.033l87.783 444.437c4.841 23.7 25.519 41.279 50.302 41.279s45.462-17.579 50.246-40.948l88.037-451.277q4.34-21.699 6.51-38.269c1.2-7.85 1.982-17.060 2.167-26.416 0.037-1.263 0.057-2.495 0.057-3.732 0-35.282-15.806-66.871-40.724-88.075z"
        ],
        "attrs": [
          {}
        ],
        "width": 296,
        "isMulticolor": false,
        "isMulticolor2": false,
        "grid": 0,
        "tags": [
          "exclamation_mark"
        ]
      },
      "attrs": [
        {}
      ],
      "properties": {
        "order": 61,
        "id": 11,
        "name": "exclamation_mark",
        "prevSize": 32,
        "code": 59663
      },
      "setIdx": 0,
      "setId": 4,
      "iconIdx": 0
    },
    {
      "icon": {
        "paths": [
          "M765.44 421.376l-72.448-72.192-180.992 180.992-180.992-180.992-72.448 72.192 253.44 253.44 253.44-253.44z"
        ],
        "attrs": [
          {}
        ],
        "isMulticolor": false,
        "isMulticolor2": false,
        "grid": 0,
        "tags": [
          "dropdown_arrow"
        ]
      },
      "attrs": [
        {}
      ],
      "properties": {
        "order": 60,
        "id": 10,
        "name": "dropdown_arrow",
        "prevSize": 32,
        "code": 59662
      },
      "setIdx": 0,
      "setId": 4,
      "iconIdx": 1
    },
    {
      "icon": {
        "paths": [
          "M512 128c-141.385 0-256 114.615-256 256v512h512v-512c0-141.385-114.615-256-256-256zM682.667 810.667h-341.333v-341.333h341.333zM341.333 384c0-94.257 76.41-170.667 170.667-170.667s170.667 76.41 170.667 170.667z"
        ],
        "attrs": [
          {}
        ],
        "isMulticolor": false,
        "isMulticolor2": false,
        "grid": 0,
        "tags": [
          "bag_empty"
        ]
      },
      "attrs": [
        {}
      ],
      "properties": {
        "order": 58,
        "id": 9,
        "name": "bag_empty",
        "prevSize": 32,
        "code": 59660
      },
      "setIdx": 0,
      "setId": 4,
      "iconIdx": 2
    },
    {
      "icon": {
        "paths": [
          "M765.44 331.008l-72.448-72.448-180.992 180.992-180.992-180.992-72.448 72.448 180.992 180.992-180.992 180.992 72.448 72.448 180.992-180.992 180.992 180.992 72.448-72.448-180.992-180.992 180.992-180.992z"
        ],
        "attrs": [
          {}
        ],
        "isMulticolor": false,
        "isMulticolor2": false,
        "grid": 0,
        "tags": [
          "close_big"
        ]
      },
      "attrs": [
        {}
      ],
      "properties": {
        "order": 57,
        "id": 8,
        "name": "close_big",
        "prevSize": 32,
        "code": 59658
      },
      "setIdx": 0,
      "setId": 4,
      "iconIdx": 3
    },
    {
      "icon": {
        "paths": [
          "M723.2 360.96l-60.16-60.16-151.040 151.040-151.040-151.040-60.16 60.16 151.040 151.040-151.040 151.040 60.16 60.16 151.040-151.040 151.040 151.040 60.16-60.16-151.040-151.040 151.040-151.040z"
        ],
        "attrs": [
          {}
        ],
        "isMulticolor": false,
        "isMulticolor2": false,
        "grid": 0,
        "tags": [
          "close_small"
        ]
      },
      "attrs": [
        {}
      ],
      "properties": {
        "order": 56,
        "id": 7,
        "name": "close_small",
        "prevSize": 32,
        "code": 59659
      },
      "setIdx": 0,
      "setId": 4,
      "iconIdx": 4
    },
    {
      "icon": {
        "paths": [
          "M776.96 170.667h-529.92c-42.18-0-76.373 34.194-76.373 76.373l0 529.92c-0 42.18 34.194 76.373 76.373 76.373h529.92c42.18 0 76.373-34.194 76.373-76.373v-529.92c0-42.18-34.194-76.373-76.373-76.373zM646.827 583.253c0 13.432-10.888 24.32-24.32 24.32h-75.52v89.173c-2.008 17.591-16.81 31.129-34.773 31.129s-32.765-13.538-34.758-30.968l-0.015-89.335h-75.947c-13.432 0-24.32-10.888-24.32-24.32v-156.587s0 0 0 0c4.129-71.128 62.818-127.245 134.613-127.245s130.485 56.117 134.596 126.882 0.017 0.363 0.017 0.363z"
        ],
        "attrs": [
          {}
        ],
        "isMulticolor": false,
        "isMulticolor2": false,
        "grid": 0,
        "tags": [
          "sm_fancy"
        ]
      },
      "attrs": [
        {}
      ],
      "properties": {
        "order": 46,
        "id": 6,
        "name": "fancy",
        "prevSize": 32,
        "code": 59652
      },
      "setIdx": 0,
      "setId": 4,
      "iconIdx": 5
    },
    {
      "icon": {
        "paths": [
          "M815.787 170.667h-607.573c-20.736 0-37.547 16.81-37.547 37.547v607.573c0 20.736 16.81 37.547 37.547 37.547h326.827v-264.533h-88.747v-102.827h89.173v-75.947c-0.388-3.683-0.609-7.958-0.609-12.284 0-68.572 55.588-124.16 124.16-124.16 3.217 0 6.406 0.122 9.562 0.363-0.264-0.026-0.080-0.026 0.103-0.026 27.773 0 55.184 1.55 82.151 4.568l-3.314 91.432h-54.613c-42.667 0-51.2 20.48-51.2 50.347v65.707h101.973l-13.227 102.827h-90.453v264.533h174.080c20.736 0 37.547-16.81 37.547-37.547l0-607.573c0-0.012 0-0.025 0-0.039 0-20.136-15.851-36.57-35.756-37.505z"
        ],
        "attrs": [
          {}
        ],
        "isMulticolor": false,
        "isMulticolor2": false,
        "grid": 0,
        "tags": [
          "sm_fb"
        ]
      },
      "attrs": [
        {}
      ],
      "properties": {
        "order": 47,
        "id": 5,
        "name": "fb",
        "prevSize": 32,
        "code": 59653
      },
      "setIdx": 0,
      "setId": 4,
      "iconIdx": 6
    },
    {
      "icon": {
        "paths": [
          "M190.293 173.653c6.495-1.973 13.96-3.109 21.69-3.109 1.526 0 3.041 0.044 4.544 0.131l597.126-0.010c1.065-0.111 2.301-0.174 3.551-0.174 20.030 0 36.267 16.237 36.267 36.267 0 1.113-0.050 2.214-0.148 3.301 0.010 200.82 0.010 401.78 0.010 602.74 0.082 0.924 0.128 1.999 0.128 3.084 0 20.501-16.619 37.12-37.12 37.12-0.946 0-1.884-0.035-2.812-0.105l-603.183 0.007c-0.795 0.061-1.721 0.095-2.655 0.095-20.501 0-37.12-16.619-37.12-37.12 0-0.934 0.035-1.861 0.102-2.778-0.007-200.838-0.007-401.798-0.007-602.758-0.068-0.864-0.107-1.87-0.107-2.885 0-14.425 7.867-27.013 19.544-33.708zM325.12 512c0.142 51.711 33.234 95.656 79.38 111.957 12.461 4.494 25.884 6.944 39.879 6.944 35.497 0 67.312-15.763 88.828-40.671 15.749-21.827 25.112-48.92 25.112-78.2 0-6.028-0.397-11.962-1.166-17.78l-113.42 0.683c0 13.653 0 26.88 0 40.533h68.267c-5.141 20.642-19.526 37.131-38.394 45.065-9.074 3.921-19.141 6.108-29.719 6.108-41.473 0-75.093-33.62-75.093-75.093 0-33.968 22.553-62.668 53.502-71.943 6.674-1.718 13.725-2.625 20.989-2.625 18.758 0 36.103 6.053 50.187 16.311 10.423-9.983 20.236-20.649 30.049-31.316-20.937-18.498-48.616-29.791-78.934-29.791-65.98 0-119.467 53.487-119.467 119.467 0 0.123 0 0.247 0.001 0.37zM631.467 460.8c0 11.093 0 22.613 0 34.133h-34.133v33.707h34.133c0 11.093 0 22.613 0 34.133h33.707c0-11.52 0-22.613 0-34.133h34.133v-33.707h-34.133c0-11.093 0-22.613 0-34.133z"
        ],
        "attrs": [
          {}
        ],
        "isMulticolor": false,
        "isMulticolor2": false,
        "grid": 0,
        "tags": [
          "sm_googleplus"
        ]
      },
      "attrs": [
        {}
      ],
      "properties": {
        "order": 48,
        "id": 4,
        "name": "googleplus",
        "prevSize": 32,
        "code": 59654
      },
      "setIdx": 0,
      "setId": 4,
      "iconIdx": 7
    },
    {
      "icon": {
        "paths": [
          "M512 232.107c91.307 0 101.973 0 137.813 0 22.917 0.326 44.721 4.679 64.869 12.382 28.6 11.305 51.818 34.522 63.291 63.651 7.533 19.619 11.887 41.423 12.211 64.202 0.002 35.978 0.002 47.072 0.002 137.952s0 101.973 0 137.813c-0.326 22.917-4.679 44.721-12.382 64.869-11.305 28.6-34.522 51.818-63.651 63.291-19.619 7.533-41.423 11.887-64.202 12.211-35.978 0.002-47.072 0.002-137.952 0.002s-101.973 0-137.813 0c-22.917-0.326-44.721-4.679-64.869-12.382-28.6-11.305-51.818-34.522-63.291-63.651-7.533-19.619-11.887-41.423-12.211-64.202-0.002-35.978-0.002-47.072-0.002-137.952s0-101.973 0-137.813c0.326-22.917 4.679-44.721 12.382-64.869 11.683-27.907 34.815-50.484 63.645-61.589 19.626-7.529 41.43-11.883 64.208-12.207 35.978-0.002 47.072-0.002 137.952-0.002zM512 170.667c-92.587 0-104.533 0-140.8 0-29.881 0.598-58.246 6.337-84.491 16.363-44.651 18.006-80.487 54.537-97.725 100.196-10.516 25.586-16.975 53.844-18.299 83.438-0.019 36.803-0.019 48.75-0.019 141.336s0 104.533 0 140.8c0.598 29.881 6.337 58.246 16.363 84.491 17.545 44.276 53.27 80.002 98.082 97.711 26.226 10.773 55.254 17.256 85.66 18.32 36.696 0.012 48.642 0.012 141.229 0.012s104.533 0 140.8 0c29.881-0.598 58.246-6.337 84.491-16.363 44.276-17.545 80.002-53.27 97.711-98.082 10.773-26.226 17.256-55.254 18.32-85.66 0.012-36.696 0.012-48.642 0.012-141.229s0-104.533 0-140.8c-0.598-29.881-6.337-58.246-16.363-84.491-17.545-44.276-53.27-80.002-98.082-97.711-26.226-10.773-55.254-17.256-85.66-18.32-36.696-0.012-48.642-0.012-141.229-0.012z",
          "M512 336.64c-96.849 0-175.36 78.511-175.36 175.36s78.511 175.36 175.36 175.36c96.849 0 175.36-78.511 175.36-175.36s-78.511-175.36-175.36-175.36zM512 625.493c-62.916-0-113.919-51.004-113.919-113.92s51.004-113.92 113.92-113.92c62.916 0 113.92 51.004 113.92 113.92 0 0.15-0 0.3-0.001 0.45 0 62.893-51.004 113.897-113.92 113.897z",
          "M735.147 329.813c0 22.622-18.338 40.96-40.96 40.96s-40.96-18.338-40.96-40.96c0-22.622 18.338-40.96 40.96-40.96s40.96 18.338 40.96 40.96z"
        ],
        "attrs": [
          {},
          {},
          {}
        ],
        "isMulticolor": false,
        "isMulticolor2": false,
        "grid": 0,
        "tags": [
          "sm_instagram"
        ]
      },
      "attrs": [
        {},
        {},
        {}
      ],
      "properties": {
        "order": 49,
        "id": 3,
        "name": "instagram",
        "prevSize": 32,
        "code": 59655
      },
      "setIdx": 0,
      "setId": 4,
      "iconIdx": 8
    },
    {
      "icon": {
        "paths": [
          "M512 170.667c-0.063-0-0.137-0-0.211-0-188.513 0-341.333 152.82-341.333 341.333 0 143.753 88.865 266.75 214.657 317.054-0.033-13.87-1.366-30.8-1.366-48.041s1.333-34.17 3.902-50.691l39.871-168.829c-5.695-13.685-9.003-29.581-9.003-46.251 0-1.14 0.015-2.277 0.046-3.41-0.004-47.193 27.303-82.606 61.863-82.606 0.108-0.001 0.235-0.002 0.362-0.002 23.564 0 42.667 19.103 42.667 42.667 0 1.956-0.132 3.882-0.387 5.768-6.971 43.096-16.766 81.308-29.6 118.095 0.456-1.091-0.123 3.193-0.123 7.612 0 27.334 22.159 49.493 49.493 49.493 0.858 0 1.712-0.022 2.559-0.065 60.468 0.005 106.974-63.995 106.974-156.155 0.055-1.435 0.086-3.119 0.086-4.811 0-74.463-60.364-134.827-134.827-134.827-1.981 0-3.952 0.043-5.912 0.127-1.631-0.098-3.87-0.148-6.122-0.148-81.532 0-147.627 66.095-147.627 147.627 0 0.199 0 0.398 0.001 0.596 0.061 29.343 9.657 56.463 25.856 78.413 1.545 1.48 2.656 4.005 2.656 6.789 0 0.946-0.128 1.863-0.369 2.733l-9.37 38.755c0 6.4-5.12 7.68-11.52 4.693-41.916-27.782-69.177-74.752-69.177-128.089 0-1.469 0.021-2.934 0.062-4.393-2.138-108.158 75.942-205.438 223.569-205.438 3.064-0.168 6.65-0.263 10.259-0.263 109.558 0 198.552 88.045 200.087 197.238 0.002 117.905-74.238 213.478-177.065 213.478-0.903 0.032-1.964 0.050-3.029 0.050-30.975 0-58.347-15.423-74.855-39.009l-21.528 80.772c-11.247 34.168-25.708 63.82-43.559 91.050 28.519 6.601 60.256 11.233 93.073 11.233 188.513 0 341.333-152.82 341.333-341.333 0-185.37-147.767-336.227-331.934-341.206z"
        ],
        "attrs": [
          {}
        ],
        "isMulticolor": false,
        "isMulticolor2": false,
        "grid": 0,
        "tags": [
          "sm_pinterest"
        ]
      },
      "attrs": [
        {}
      ],
      "properties": {
        "order": 50,
        "id": 2,
        "name": "pinterest",
        "prevSize": 32,
        "code": 59656
      },
      "setIdx": 0,
      "setId": 4,
      "iconIdx": 9
    },
    {
      "icon": {
        "paths": [
          "M384 789.333c0.763 0.005 1.665 0.008 2.568 0.008 218.675 0 395.947-177.271 395.947-395.947 0-0.903-0.003-1.805-0.009-2.707 0.001-5.835 0.001-11.808 0.001-17.782 27.981-20.468 51.504-45.076 70.17-73.188-22.824 9.688-50.062 17.5-78.633 21 27.588-17.461 49.32-44.45 59.809-76.526-25.26 14.491-54.984 26.327-86.654 32.83-27.429-26.545-63.491-43.243-103.452-43.243-77.526 0-140.373 62.847-140.373 140.373 0 11.055 1.278 21.812 3.694 32.131-116.748-6.583-219.431-61.584-288.497-145.338-12.52 19.556-19.596 43.918-19.596 69.933 0 48.171 24.264 90.676 61.238 115.957-22.962-0.395-44.765-6.794-63.785-17.543s0.694 0.36 0.694 0.36c-0 0.064-0 0.14-0 0.215 0 67.475 47.752 123.796 111.306 137.013-10.214 3.336-22.988 5.164-36.188 5.164-9.213 0-18.218-0.89-26.934-2.589 19.372 56.249 70.798 96.249 131.733 97.421-47.206 37.504-107.796 60.162-173.677 60.162-0.093 0-0.187-0-0.28-0-0.359 0.002-0.801 0.003-1.243 0.003-10.981 0-21.817-0.621-32.474-1.83 61.522 39.771 135.246 63.574 214.496 64.12z"
        ],
        "attrs": [
          {}
        ],
        "isMulticolor": false,
        "isMulticolor2": false,
        "grid": 0,
        "tags": [
          "sm_twitter"
        ]
      },
      "attrs": [
        {}
      ],
      "properties": {
        "order": 51,
        "id": 1,
        "name": "twitter",
        "prevSize": 32,
        "code": 59657
      },
      "setIdx": 0,
      "setId": 4,
      "iconIdx": 10
    },
    {
      "icon": {
        "paths": [
          "M452.352 183.552c-0.038-0-0.084-0-0.129-0-141.385 0-256 114.615-256 256s114.615 256 256 256c46.041 0 89.244-12.154 126.574-33.43l176.403 178.326 72.448-72.448-172.544-172.544c33.032-42.681 52.949-96.967 52.949-155.904 0-141.28-114.445-255.829-255.684-256zM452.352 593.152c-84.831 0-153.6-68.769-153.6-153.6s68.769-153.6 153.6-153.6c84.831 0 153.6 68.769 153.6 153.6s-68.769 153.6-153.6 153.6z"
        ],
        "attrs": [
          {}
        ],
        "isMulticolor": false,
        "isMulticolor2": false,
        "grid": 0,
        "tags": [
          "search_big"
        ]
      },
      "attrs": [
        {}
      ],
      "properties": {
        "order": 52,
        "id": 0,
        "name": "search",
        "prevSize": 32,
        "code": 59649
      },
      "setIdx": 0,
      "setId": 4,
      "iconIdx": 11
    },
    {
      "icon": {
        "paths": [
          "M765.44 403.456l-72.448-72.448-217.088 217.088-144.896-144.64-72.448 72.448 217.344 217.088 289.536-289.536z"
        ],
        "attrs": [
          {}
        ],
        "isMulticolor": false,
        "isMulticolor2": false,
        "grid": 0,
        "tags": [
          "icon_check"
        ],
        "colorPermutations": {
          "25525525514242421": [
            {}
          ]
        }
      },
      "attrs": [
        {}
      ],
      "properties": {
        "order": 59,
        "id": 10,
        "name": "check",
        "prevSize": 32,
        "code": 59661
      },
      "setIdx": 1,
      "setId": 3,
      "iconIdx": 0
    },
    {
      "icon": {
        "paths": [
          "M256 448h512v128h-512v-128z"
        ],
        "attrs": [
          {}
        ],
        "isMulticolor": false,
        "isMulticolor2": false,
        "grid": 0,
        "tags": [
          "icon_minus"
        ],
        "colorPermutations": {
          "25525525514242421": [
            {}
          ]
        }
      },
      "attrs": [
        {}
      ],
      "properties": {
        "order": 55,
        "id": 9,
        "name": "minus",
        "prevSize": 32,
        "code": 59650
      },
      "setIdx": 1,
      "setId": 3,
      "iconIdx": 1
    },
    {
      "icon": {
        "paths": [
          "M768 448h-192v-192h-128v192h-192v128h192v192h128v-192h192v-128z"
        ],
        "attrs": [
          {}
        ],
        "isMulticolor": false,
        "isMulticolor2": false,
        "grid": 0,
        "tags": [
          "icon_plus"
        ],
        "colorPermutations": {
          "25525525514242421": [
            {}
          ]
        }
      },
      "attrs": [
        {}
      ],
      "properties": {
        "order": 54,
        "id": 8,
        "name": "plus",
        "prevSize": 32,
        "code": 59651
      },
      "setIdx": 1,
      "setId": 3,
      "iconIdx": 2
    },
    {
      "icon": {
        "paths": [
          "M512 128c-141.385 0-256 114.615-256 256v512h512v-512c0-141.385-114.615-256-256-256zM512 230.4c84.831 0 153.6 68.769 153.6 153.6h-307.2c0-84.831 68.769-153.6 153.6-153.6z"
        ],
        "attrs": [
          {}
        ],
        "isMulticolor": false,
        "isMulticolor2": false,
        "grid": 0,
        "tags": [
          "bag"
        ],
        "colorPermutations": {
          "25525525514242421": [
            {}
          ]
        }
      },
      "attrs": [
        {}
      ],
      "properties": {
        "order": 53,
        "id": 1,
        "name": "bag",
        "prevSize": 32,
        "code": 59648
      },
      "setIdx": 1,
      "setId": 3,
      "iconIdx": 3
    }
  ],
  "height": 1024,
  "metadata": {
    "name": "icomoon"
  },
  "preferences": {
    "showGlyphs": true,
    "showQuickUse": true,
    "showQuickUse2": false,
    "showSVGs": false,
    "fontPref": {
      "prefix": "icon-",
      "metadata": {
        "fontFamily": "icomoon"
      },
      "metrics": {
        "emSize": 1024,
        "baseline": 6.25,
        "whitespace": 50
      },
      "embed": false
    },
    "imagePref": {
      "prefix": "icon-",
      "png": true,
      "useClassSelector": true,
      "color": 0,
      "bgColor": 16777215,
      "classSelector": ".icon"
    },
    "historySize": 100,
    "showCodes": true,
    "gridSize": 16
  }
}